246-162-28-238-214-121-50-65-186-104-62-62-71-43-31-18
40-166-54-222-249-39-68-110-45-25-216-252-161-130-235-151
36-7-134-250-128-184-59-59-33-121-121-104-165-152-122-205
62-176-171-55-216-239-165-5-9-125-2-170-255-237-65-35
244-199-30-117-128-89-176-161-211-41-9-120-193-132-69-255
52-241-55-12-224-220-18-233-90-20-147-89-1-213-125-245
156-155-106-28-244-26-189-199-67-199-63-4-75-133-4-127
118-59-140-86-23-158-64-113-178-211-203-179-168-72-168-69
227-19-97-215-45-31-159-113-230-222-117-49-99-121-176-217
180-60-48-204-218-112-61-140-67-8-63-236-80-232-49-51
251-146-11-40-177-170-153-151-136-15-200-236-136-121-197-61
181-245-9-144-101-70-28-169-79-92-149-159-68-198-211-63
88-222-103-10-136-1-161-16-16-106-252-152-227-194-213-152
183-222-40-29-37-69-198-116-161-91-19-229-33-230-36-121
