207-171-219-202-20-178-220-108-17-126-103-113-167-20-161-32
113-248-231-228-120-30-240-98-174-50-91-28-18-147-0-212
153-209-202-92-215-28-9-15-232-83-246-2-75-74-16-180
249-121-58-52-139-233-70-148-11-71-100-51-236-66-56-194
20-9-68-102-44-228-205-208-14-202-74-182-75-57-231-157
242-225-234-199-92-163-79-117-148-82-39-248-64-90-205-18
253-201-102-134-216-81-62-241-59-84-143-216-133-88-232-54
157-150-26-108-87-131-113-200-177-86-140-92-137-159-33-231
114-195-248-235-133-247-120-102-96-132-227-137-80-146-76-231
253-25-102-201-70-227-71-232-9-48-87-5-122-128-230-84
13-122-206-201-223-247-203-129-88-0-30-165-157-81-36-219
210-246-29-231-149-253-135-174-229-6-150-3-143-111-105-207
103-238-37-109-56-252-163-70-191-128-139-22-221-121-175-83
42-147-117-60-146-174-42-204-247-128-27-25-141-230-137-130
