85-214-111-90-133-179-9-124-222-29-145-166-97-83-139-197
138-192-15-208-73-115-134-37-160-164-30-113-226-189-76-55
147-187-145-24-111-155-149-77-184-38-244-25-121-127-222-3
63-237-211-136-96-89-174-0-253-204-114-223-138-190-22-29
122-167-54-233-66-203-54-250-241-42-19-106-169-241-109-232
223-64-113-63-153-31-64-150-235-178-117-117-112-139-147-234
50-201-211-117-148-10-111-133-52-131-239-222-116-92-198-83
156-55-147-53-86-211-203-66-133-64-183-245-203-74-224-253
19-179-114-167-189-226-44-242-101-27-208-217-119-150-45-19
