140-105-92-203-26-250-141-16-62-57-128-68-235-60-52-33
103-249-190-97-91-72-28-170-63-6-0-197-118-80-74-208
251-30-157-230-114-112-155-144-6-34-85-19-198-87-24-227
254-205-233-102-164-246-56-173-250-154-24-22-47-236-13-18
