15-65-26-207-254-164-169-102-14-124-85-60-67-151-216-29
159-134-251-13-181-214-146-69-107-126-25-129-42-161-157-44
149-136-61-96-105-27-175-54-126-212-206-243-8-179-227-226
74-79-231-10-1-5-248-121-164-62-227-70-0-84-7-117
