188-214-138-91-253-58-47-53-187-147-33-59-167-134-245-154
206-127-147-10-8-83-181-96-83-189-78-146-208-44-94-47
77-129-34-246-74-222-120-253-63-31-36-231-203-20-175-123
30-90-172-144-120-202-73-215-122-129-89-246-2-56-44-173
176-78-59-68-224-47-130-155-123-244-94-15-181-241-118-41
5-130-88-137-57-58-20-175-205-243-93-252-128-119-179-106
143-62-240-167-128-11-201-116-97-17-155-171-110-207-120-89
194-104-66-133-35-203-176-110-162-75-151-157-174-132-201-135
205-147-46-72-10-136-53-251-12-18-186-193-125-250-131-45
25-116-105-115-182-148-32-222-62-1-164-239-42-177-171-90
29-203-12-111-50-170-209-61-237-78-30-239-37-92-64-157
223-147-200-9-134-133-107-186-246-141-182-155-161-173-188-28
234-248-108-210-195-174-84-47-21-109-34-112-102-186-16-31
