236-50-156-113-166-28-15-125-49-160-89-105-151-175-86-53
62-172-2-224-50-57-144-211-218-122-5-86-96-182-10-122
19-146-252-125-239-29-212-125-13-74-109-147-46-183-14-208
94-122-236-189-34-152-238-152-180-194-227-38-188-89-124-112
