249-255-44-202-205-135-177-62-141-123-106-243-53-69-244-125
124-188-165-28-77-104-118-115-111-179-3-253-11-48-250-4
47-38-206-252-173-128-58-58-251-164-45-48-234-33-173-102
221-82-130-43-186-248-158-42-172-161-39-183-209-33-187-0
71-138-252-244-10-54-46-5-219-91-54-197-124-227-43-89
