15-232-221-65-37-130-136-117-21-42-196-36-225-236-73-180
205-34-251-79-168-12-93-231-224-19-22-196-224-201-62-34
213-249-184-162-161-236-57-188-132-196-77-70-205-145-169-139
82-55-64-180-125-248-66-188-155-137-109-170-122-196-211-82
46-249-202-56-67-175-139-238-20-159-146-202-87-164-219-232
184-25-38-78-183-168-197-13-225-66-110-118-47-229-135-15
49-92-15-187-59-88-68-54-127-23-246-229-209-86-200-72
