166-145-87-159-199-237-202-89-27-227-26-217-206-83-10-137
226-120-54-222-71-9-38-187-77-233-34-84-191-41-244-216
18-54-56-93-210-132-230-201-30-4-115-190-240-184-104-218
149-192-10-157-103-33-233-240-176-206-81-240-3-120-10-219
132-106-55-179-216-140-254-247-55-250-174-66-55-201-25-190
138-90-64-229-142-159-188-241-52-82-216-254-102-244-201-210
139-199-23-99-135-60-32-61-53-14-187-8-241-150-3-208
238-63-192-111-50-166-248-179-210-68-24-169-21-224-46-167
95-45-118-13-4-159-244-186-249-37-99-27-243-84-43-165
29-198-81-151-234-40-229-53-224-201-148-8-246-16-49-10
154-6-239-209-187-250-77-46-40-101-105-230-125-57-170-222
16-83-139-243-36-197-153-35-203-227-153-35-134-206-200-94
33-83-29-43-135-138-87-15-35-52-194-5-192-158-148-219
147-91-162-29-91-174-151-53-216-18-250-73-67-32-125-163
143-114-228-162-199-143-225-131-55-184-100-102-85-11-196-76
96-178-68-48-154-179-194-18-231-59-137-168-147-94-178-23
