120-22-68-96-6-74-159-67-145-160-217-165-180-168-184-133
43-128-251-69-119-78-20-107-135-236-207-87-49-70-81-169
92-150-9-99-224-168-166-114-72-127-23-253-39-207-130-82
79-125-151-199-203-171-50-83-151-1-170-201-72-251-114-164
145-124-7-114-36-173-228-109-44-251-106-84-203-236-166-26
