234-49-148-132-242-147-227-198-31-75-224-123-181-228-172-211
82-126-160-193-117-208-65-189-241-121-125-28-134-2-184-112
51-76-244-37-223-216-236-255-35-204-122-217-176-38-172-2
164-76-195-25-29-4-214-14-126-84-42-4-86-226-117-137
