195-71-47-168-255-90-216-103-217-46-108-86-173-66-250-74
30-51-171-217-238-189-184-24-92-124-5-115-125-29-72-237
149-15-61-70-29-239-1-231-154-98-5-38-215-123-133-62
24-214-17-204-12-235-109-83-75-241-247-135-100-87-75-22
16-34-180-161-106-25-36-63-16-38-93-210-74-99-229-167
207-96-154-64-80-131-19-150-22-157-5-123-130-232-187-246
154-201-49-178-158-166-74-189-202-40-203-21-97-180-52-228
0-54-236-110-130-103-56-171-111-194-166-6-222-89-241-181
215-147-143-233-66-143-162-7-180-110-57-216-78-89-5-187
121-147-33-71-130-91-82-32-49-11-10-56-53-104-20-169
139-67-184-217-106-168-92-21-156-130-93-199-141-227-117-195
