23-15-36-73-90-74-213-112-136-37-251-63-65-54-99-86
232-28-94-37-10-53-247-101-8-114-109-115-110-62-40-124
114-78-199-30-0-204-145-147-171-115-128-40-130-234-7-183
81-190-136-172-114-36-61-78-39-3-201-137-26-22-64-100
140-242-190-67-249-8-196-86-206-60-180-20-140-187-140-111
3-96-224-54-95-1-92-149-114-18-237-8-195-42-249-55
75-230-183-115-169-79-22-178-191-23-21-224-161-222-8-33
