246-2-56-26-239-15-204-158-228-75-86-57-228-104-246-11
18-17-37-6-60-108-156-30-222-119-48-156-129-197-9-7
198-67-211-93-117-167-14-13-212-144-2-215-199-118-88-80
202-239-214-108-75-83-214-205-202-189-230-185-42-95-255-87
234-157-188-51-94-237-3-86-243-47-215-31-59-175-220-98
159-145-238-25-203-250-218-137-176-110-7-79-209-116-127-232
26-146-0-78-98-35-77-8-220-168-40-104-225-0-10-250
146-183-28-119-12-110-236-37-122-240-121-39-127-173-100-212
111-150-30-10-75-216-107-199-76-101-130-176-34-46-33-170
254-213-3-63-43-165-228-162-197-43-110-255-180-123-219-140
199-248-65-178-11-237-171-17-17-74-98-96-131-207-82-230
151-219-123-70-90-219-31-170-186-176-195-55-76-1-72-187
46-41-79-26-107-126-75-20-119-194-44-80-154-183-255-169
187-68-129-111-240-187-102-104-46-127-162-177-241-73-76-141
