32-201-92-151-60-102-149-195-74-96-189-178-99-144-75-198
78-147-139-130-150-148-80-132-46-121-133-170-230-149-252-34
40-108-188-161-171-207-238-75-153-179-82-162-244-240-71-86
148-162-191-172-247-197-151-80-64-33-66-186-1-72-123-171
119-187-212-243-80-11-253-123-42-142-220-156-47-134-124-38
41-50-231-142-4-181-106-93-215-208-65-79-83-167-15-12
