136-130-99-130-223-78-0-147-225-63-105-107-57-83-63-192
206-206-0-208-165-147-211-81-104-125-115-180-115-129-195-209
86-196-126-134-181-136-68-226-36-250-67-8-65-120-240-3
236-187-206-51-78-211-160-68-181-97-167-43-30-192-80-235
244-208-221-135-168-58-208-242-129-235-183-94-177-195-188-107
14-28-2-57-188-47-220-91-37-189-108-66-217-63-186-110
31-69-246-174-124-121-75-97-129-68-249-195-47-208-170-138
