241-10-195-29-156-7-139-86-158-39-145-62-43-210-202-114
200-150-33-185-10-198-144-54-191-65-97-52-121-21-241-207
67-210-20-80-29-247-223-24-240-23-247-60-218-236-8-98
115-104-185-242-197-133-192-139-63-84-211-86-217-187-33-43
132-18-115-18-13-30-206-136-167-225-174-62-222-201-229-152
242-171-227-72-195-111-161-102-107-243-65-98-156-252-233-166
190-215-104-52-26-246-185-232-103-251-6-98-242-114-124-207
4-19-202-84-101-167-202-71-236-238-117-171-252-17-55-71
185-158-249-72-139-242-68-228-165-58-36-91-30-46-46-102
154-158-90-115-185-205-206-74-202-231-10-37-70-15-203-227
