195-168-239-195-203-28-141-22-43-146-14-106-104-168-213-1
125-184-73-140-155-132-254-244-140-44-45-0-68-203-231-201
58-224-31-192-119-145-165-37-141-216-105-82-84-131-234-233
174-153-47-151-145-8-248-10-160-245-175-182-155-193-49-44
227-128-189-208-3-114-245-214-83-4-255-239-152-52-109-157
131-164-26-115-50-9-128-15-122-217-38-189-71-175-68-59
181-182-14-14-132-55-189-166-101-197-27-146-191-159-245-218
27-189-121-108-246-146-67-187-69-60-179-30-115-174-109-146
192-119-160-24-60-202-59-160-80-242-28-49-102-225-16-188
