122-141-130-216-36-239-51-208-122-2-160-189-220-30-244-196
181-106-78-238-173-100-226-216-125-104-71-81-222-98-143-130
56-84-126-69-146-64-16-23-24-190-194-157-147-34-234-174
5-247-247-234-116-146-32-244-123-22-177-46-218-245-52-166
239-230-4-76-164-105-114-25-184-53-95-32-200-254-61-62
229-85-198-96-255-23-163-196-83-210-105-118-242-190-24-45
173-60-81-242-61-86-140-68-17-7-61-156-205-201-98-175
133-170-38-43-250-217-198-173-17-91-221-83-186-79-242-133
29-6-150-250-186-245-175-154-203-175-213-185-33-134-152-147
75-1-200-176-54-85-230-169-45-32-230-87-137-218-215-255
53-151-141-117-177-161-57-162-81-50-134-0-251-134-94-238
