86-182-71-197-21-136-210-222-86-169-232-80-196-37-123-44
198-145-59-143-83-68-233-232-72-195-9-51-121-40-199-80
227-251-153-61-2-212-166-236-248-16-41-17-58-108-102-239
189-70-178-141-205-219-216-3-128-115-115-166-106-58-221-210
188-139-114-221-150-74-23-14-37-96-73-194-1-65-105-81
140-192-65-42-213-251-227-211-113-206-8-39-133-239-223-222
50-246-23-203-79-158-68-252-121-151-143-213-23-176-15-60
50-181-4-140-255-119-213-120-120-69-230-82-164-148-8-121
207-252-104-20-29-118-94-2-160-126-138-164-255-219-252-62
211-221-96-179-155-205-190-133-12-6-150-109-91-206-96-132
143-45-118-25-149-118-177-51-139-154-169-38-178-111-124-137
