30-29-213-52-127-139-152-78-77-69-109-49-172-116-155-23
72-192-240-62-175-125-249-125-128-180-184-102-101-8-236-132
37-194-184-164-77-81-243-154-150-96-203-67-212-102-90-28
39-74-91-214-200-84-84-72-8-12-175-110-20-155-242-57
93-170-222-170-251-209-68-146-49-15-213-5-118-47-33-157
