153-124-42-217-121-77-185-37-100-97-166-118-175-76-18-151
84-141-255-142-176-49-206-182-50-188-131-124-127-186-115-164
66-89-140-171-1-95-120-46-95-190-203-230-157-150-121-67
220-53-232-134-193-162-208-11-93-54-40-148-24-147-222-145
229-54-146-237-163-22-3-175-39-214-173-232-43-22-206-75
