194-57-118-135-173-225-40-239-165-211-234-134-155-202-107-60
236-46-186-228-86-171-85-2-17-184-65-57-49-120-247-250
131-145-83-27-164-149-133-42-149-215-156-38-74-200-173-235
3-207-130-249-108-113-110-219-55-144-100-217-187-223-196-104
183-144-28-231-101-179-166-155-96-72-188-130-199-179-85-70
