220-212-87-207-56-212-139-164-251-187-21-82-90-229-122-27
196-246-243-236-183-222-0-83-115-254-180-135-18-9-76-208
235-229-101-188-246-233-122-140-247-26-184-177-198-97-199-32
16-130-231-55-69-213-82-117-7-16-92-168-124-95-138-69
208-16-91-55-222-235-25-32-47-75-123-197-184-141-142-161
226-217-239-240-179-31-253-154-39-105-223-102-227-22-179-246
3-3-24-170-46-69-240-47-56-104-8-32-48-69-237-102
