110-57-254-27-50-212-81-181-25-45-63-251-9-219-111-50
133-71-140-175-157-186-170-36-174-210-228-104-156-255-41-142
44-250-69-139-63-91-148-244-209-207-94-102-253-148-216-226
194-180-119-60-122-31-126-92-143-92-27-13-171-95-185-28
149-103-56-168-94-14-138-148-58-133-228-235-174-169-140-32
183-35-75-152-41-183-187-53-132-56-71-95-227-41-143-191
42-179-216-98-180-96-130-87-240-18-209-122-137-97-68-164
191-166-15-143-169-108-125-53-29-86-126-220-178-26-123-89
128-41-43-32-247-55-108-214-110-11-17-174-194-75-0-60
245-16-201-6-36-230-181-20-80-130-166-128-149-191-192-221
71-211-99-41-87-7-119-2-130-16-180-142-26-165-124-64
