208-124-74-171-45-242-143-72-81-211-107-149-112-11-99-45
120-59-15-252-61-255-69-196-236-192-142-145-203-133-235-245
218-164-17-228-107-181-240-210-32-53-177-10-204-240-80-199
153-167-31-151-86-110-41-26-233-26-171-7-49-114-20-146
95-159-248-47-177-48-191-240-55-120-142-67-236-132-15-221
229-184-12-94-235-229-24-139-152-248-59-114-226-235-233-156
46-22-80-68-167-39-232-179-225-117-32-86-155-13-60-1
156-3-30-233-132-193-198-139-160-176-41-21-33-254-189-241
85-235-82-221-115-93-193-247-208-250-50-236-153-12-25-151
219-102-158-126-196-96-72-92-161-232-3-85-95-156-34-4
59-97-19-235-179-246-31-182-232-102-167-245-254-100-101-108
