38-198-241-156-165-79-136-12-19-132-11-73-31-186-225-40
109-70-86-160-120-145-144-221-109-225-174-224-77-46-179-115
244-165-15-154-244-152-166-7-28-177-80-59-107-49-99-216
119-185-121-239-74-9-204-184-234-122-152-55-169-76-170-157
241-186-55-229-82-221-236-110-142-60-169-250-110-13-210-229
198-75-213-17-84-161-201-63-28-97-118-197-173-33-98-158
219-154-131-45-119-111-155-6-172-68-0-26-81-210-255-24
30-212-41-114-118-242-177-146-83-40-87-1-73-185-159-36
83-35-81-203-146-236-209-62-48-209-88-130-163-88-154-193
44-195-52-162-181-229-52-8-13-139-9-86-69-169-122-152
204-203-99-94-183-52-157-232-5-245-106-169-77-4-106-122
199-158-28-124-132-81-132-145-220-142-232-33-55-98-186-3
46-29-97-229-82-254-205-87-244-55-0-65-59-107-187-2
9-216-126-141-41-3-31-5-145-7-39-200-105-225-203-151
