173-102-197-197-112-125-127-176-169-228-41-163-157-3-192-169
122-249-79-34-120-140-48-84-254-241-142-120-68-249-188-225
115-250-216-255-253-13-135-237-127-136-170-63-141-4-20-62
225-95-171-171-52-251-232-62-243-171-73-235-54-194-123-242
45-226-129-139-153-120-123-141-117-159-45-69-166-33-25-145
82-235-169-113-138-127-55-173-173-100-187-115-80-182-7-219
79-139-94-71-226-111-101-31-105-20-0-43-4-113-76-170
10-203-216-28-80-232-56-218-81-48-194-229-67-108-142-208
146-143-40-108-241-229-137-75-212-49-41-8-188-131-198-75
124-141-82-58-41-31-53-92-221-52-203-242-126-73-153-117
104-1-6-226-163-98-82-158-70-82-83-162-85-179-120-231
100-202-248-85-8-234-176-96-28-77-99-3-103-140-188-4
103-94-172-202-152-225-37-42-15-246-174-71-119-70-255-236
