213-21-221-244-62-159-40-54-5-29-98-106-1-186-32-146
102-120-166-108-157-29-82-90-199-211-205-106-91-231-29-189
181-137-160-174-251-218-63-34-27-242-176-111-61-194-134-217
220-128-111-183-114-169-147-245-158-204-105-93-97-89-71-24
15-10-220-206-58-139-82-186-130-237-208-232-98-155-206-71
222-1-193-22-37-2-214-72-126-203-185-232-151-224-141-56
