224-22-127-216-3-162-187-146-185-214-84-84-107-118-22-244
35-107-176-250-28-46-250-239-173-136-84-134-196-118-219-164
140-91-125-143-253-56-34-182-14-118-10-121-236-32-109-16
140-30-10-168-76-4-152-250-141-236-128-81-98-92-246-239
183-115-126-180-171-160-107-185-23-117-50-3-150-160-19-34
