7-222-236-183-150-5-2-64-152-219-91-244-178-210-138-157
227-97-236-58-239-5-51-68-74-134-82-148-154-202-26-248
105-19-102-252-97-72-218-30-17-22-48-255-163-167-117-0
76-114-5-232-65-204-122-79-17-166-210-113-31-16-191-128
59-148-17-177-79-122-87-120-78-31-39-215-162-76-161-179
