204-87-192-2-170-217-237-161-157-61-242-185-54-95-197-114
100-192-221-66-204-248-146-150-203-85-103-79-41-63-14-87
149-126-118-114-25-96-83-165-98-13-59-202-254-254-4-214
250-14-213-240-144-119-247-163-220-58-216-176-192-65-95-64
102-31-132-192-240-250-181-190-39-108-153-50-220-89-136-101
91-66-121-185-176-137-14-52-235-171-87-211-75-188-119-48
247-250-18-194-234-200-30-165-134-9-61-97-90-246-131-147
107-22-189-154-176-215-45-92-199-168-154-51-210-215-230-57
148-203-6-135-212-245-25-35-47-11-86-77-88-212-13-128
