133-86-101-188-215-127-144-19-187-107-122-138-79-31-90-172
195-126-216-7-149-178-71-162-114-211-79-132-200-219-172-176
34-24-175-222-255-193-99-243-89-52-227-84-109-209-102-99
205-21-207-134-196-126-250-157-110-92-47-27-17-19-214-185
47-58-136-249-4-82-120-102-42-16-125-129-72-143-114-33
155-160-151-6-87-227-8-147-110-166-46-80-195-40-136-18
101-107-71-172-169-17-135-5-128-64-202-117-162-39-4-22
