255-122-124-184-93-49-237-99-159-63-82-150-205-119-167-241
106-6-52-13-251-177-160-113-95-45-205-169-252-245-241-86
192-187-155-196-186-108-111-19-145-158-24-236-176-10-16-111
218-220-203-249-36-6-11-74-31-20-168-112-69-99-72-40
168-146-30-90-221-43-133-16-118-84-136-197-181-81-95-178
137-29-60-1-77-24-198-223-31-234-42-216-106-100-30-107
124-63-160-241-141-69-195-246-5-248-66-18-113-96-221-179
