3-158-253-179-189-158-88-186-10-11-24-144-73-64-158-173
182-140-79-150-43-233-187-32-233-160-106-11-89-161-198-199
9-202-231-102-139-21-58-178-224-40-62-143-172-247-120-46
11-93-42-78-191-191-135-97-26-18-189-217-233-15-241-174
127-216-192-80-198-98-3-207-174-22-91-122-91-29-81-211
