209-250-227-54-168-108-52-121-220-52-204-22-197-52-63-255
231-71-195-250-241-111-8-43-57-15-119-138-82-231-24-221
98-185-14-233-165-115-186-141-112-76-237-10-228-244-55-33
254-117-197-148-231-30-172-236-250-215-46-9-156-156-217-13
236-70-181-86-181-160-143-97-56-80-34-161-8-68-220-53
