91-84-118-130-122-144-210-138-38-169-117-8-224-146-71-89
146-111-66-47-151-72-187-18-184-141-159-30-77-222-253-150
159-104-82-53-117-78-12-64-17-124-155-51-239-108-92-35
129-139-42-0-225-123-57-133-215-178-178-86-108-170-134-8
213-173-223-109-9-108-28-84-79-107-186-11-234-229-224-171
189-246-181-109-37-247-201-86-26-129-201-105-48-180-27-49
