59-222-138-188-250-89-83-38-113-186-102-229-153-253-77-29
64-142-244-196-222-5-49-21-145-48-198-159-225-89-231-27
97-220-133-109-145-13-185-214-185-169-111-23-104-188-201-174
27-20-48-247-62-211-32-193-241-240-14-164-148-180-56-2
181-20-107-233-5-30-212-33-95-214-150-194-220-58-133-224
247-20-2-3-87-254-47-8-20-72-238-180-62-67-51-243
