176-126-48-87-187-60-5-191-187-225-232-241-151-173-138-87
134-192-154-39-233-67-151-18-70-125-186-133-119-198-189-39
68-237-126-255-42-132-190-229-101-166-214-252-84-96-83-218
32-237-2-9-49-153-28-119-22-214-253-142-156-186-181-225
167-52-224-209-184-159-183-29-69-141-26-153-238-109-116-14
91-118-24-140-15-52-3-37-10-0-179-167-186-105-136-98
157-104-51-85-7-234-114-77-120-140-230-102-250-90-116-85
208-140-225-223-192-228-5-203-229-184-114-159-33-250-1-190
98-53-19-106-31-134-183-151-18-157-253-12-248-114-97-200
254-66-168-191-39-173-138-12-101-252-171-135-246-173-69-88
226-89-194-1-223-121-153-241-23-150-254-15-8-95-215-7
162-127-198-201-44-80-213-146-76-128-25-66-45-94-154-15
183-93-17-150-214-170-136-237-64-134-252-73-229-212-80-135
83-22-80-128-102-37-18-178-166-43-244-211-137-142-227-65
235-244-215-194-158-95-175-222-229-172-39-203-128-119-82-211
141-163-83-243-200-101-165-110-144-153-66-26-40-37-91-19
