150-20-204-248-101-127-62-251-141-202-183-232-126-40-237-252
79-210-56-158-235-222-182-183-103-212-205-237-51-125-147-124
236-112-217-225-230-142-93-187-55-163-27-181-35-164-199-28
96-63-138-88-73-168-171-12-182-163-93-215-101-8-162-47
193-14-59-100-44-56-148-253-215-1-207-16-118-92-192-116
71-123-89-179-228-175-75-29-131-98-218-71-74-94-200-43
4-171-250-93-85-203-148-60-169-167-38-227-251-161-233-146
34-246-14-42-220-161-255-57-37-215-158-213-43-211-237-184
12-209-138-123-253-233-183-102-51-13-125-32-46-166-192-232
236-105-143-144-76-127-108-151-233-9-136-198-91-100-119-51
117-199-184-215-68-66-222-189-190-63-61-2-225-175-75-249
136-157-54-19-0-156-15-218-159-225-99-6-215-242-248-183
229-71-215-56-10-105-34-170-153-161-36-178-98-168-33-151
60-200-2-224-123-112-243-65-254-121-255-58-21-29-195-189
34-69-124-82-39-227-72-69-212-125-147-18-75-44-146-141
80-121-47-27-8-86-163-10-217-104-249-98-167-232-14-0
