103-103-187-159-239-80-183-125-74-231-119-207-206-127-54-39
159-160-108-190-21-216-207-171-230-189-117-176-79-75-236-80
21-144-254-140-80-71-97-98-27-245-108-18-251-154-94-119
132-114-58-137-206-203-208-99-249-171-0-49-125-235-110-124
199-215-227-7-254-165-233-198-203-116-69-86-157-221-162-172
244-208-40-206-121-200-210-228-224-87-4-42-161-109-14-86
250-187-69-236-233-159-86-165-103-30-220-145-102-70-82-218
145-177-152-126-31-155-230-62-191-46-197-148-6-13-195-52
15-30-11-132-104-144-161-128-255-19-0-14-200-157-196-111
244-212-227-127-37-40-61-237-7-183-166-118-46-172-131-139
