38-18-182-130-90-82-205-0-10-15-247-188-59-110-185-42
3-119-218-251-65-139-227-52-50-47-54-18-231-30-214-8
157-191-9-77-60-54-50-210-179-158-20-231-6-248-40-72
185-101-192-193-156-227-203-101-37-5-155-78-44-201-140-68
28-113-129-102-200-82-145-163-207-176-60-174-226-251-45-125
162-224-76-40-162-213-255-189-114-23-214-98-99-85-227-123
9-30-238-109-137-63-152-30-236-51-14-98-150-126-51-2
138-194-109-239-201-60-87-86-245-207-61-191-114-52-157-209
252-152-6-181-167-120-202-133-5-172-140-50-237-120-148-24
56-182-3-136-55-41-35-54-227-113-81-101-169-133-183-162
108-90-55-81-130-70-16-81-74-155-152-135-168-227-132-239
227-20-114-251-180-131-141-47-6-21-78-29-200-42-55-55
