151-114-231-161-192-173-46-238-146-12-148-37-175-160-80-230
168-206-134-106-17-241-215-53-231-151-48-138-172-214-50-116
225-154-255-5-197-238-173-168-86-161-74-143-172-176-204-12
92-95-50-203-38-34-127-66-241-9-67-236-142-28-143-154
238-140-103-199-180-114-14-39-20-72-154-250-117-66-101-216
