154-105-237-111-34-121-141-51-58-35-240-201-252-71-161-96
47-253-118-195-50-172-190-139-237-154-183-191-165-247-45-106
77-62-133-128-129-51-121-47-176-111-157-233-165-109-170-35
26-114-45-207-230-212-56-202-172-112-78-84-245-146-233-62
51-15-159-43-167-105-48-180-92-214-62-164-38-202-163-80
