73-198-25-201-217-229-16-130-172-157-28-201-98-90-64-3
101-106-115-102-116-99-172-250-157-202-127-92-247-190-93-64
132-118-9-93-91-26-223-7-183-251-208-26-86-16-29-187
123-145-33-239-244-206-233-145-152-104-237-143-38-74-207-171
192-216-8-27-242-232-34-170-227-243-196-57-3-225-244-126
