99-173-61-168-202-5-10-231-71-110-193-155-157-177-233-26
192-42-193-120-135-165-253-153-61-57-15-47-237-158-54-249
198-119-245-175-133-66-83-128-7-230-165-71-138-225-100-51
96-83-38-114-198-237-152-170-78-195-202-162-84-194-15-231
20-61-203-163-50-71-124-237-177-85-124-136-179-138-242-72
