170-176-248-116-92-250-244-80-239-208-18-22-119-130-89-1
118-120-232-7-2-116-150-137-95-244-43-187-173-147-238-222
232-53-133-251-245-3-144-168-71-205-151-198-222-39-19-50
211-221-200-248-147-48-84-130-117-251-3-91-131-41-107-12
233-22-82-83-41-188-209-70-112-19-78-54-55-171-50-21
0-11-183-24-32-149-12-74-251-28-9-231-39-188-225-76
64-217-165-86-230-6-10-57-233-114-182-184-19-33-197-58
42-6-33-197-71-223-137-75-105-51-182-41-99-80-111-97
181-92-149-162-254-81-114-179-94-79-39-40-129-36-23-7
28-98-2-120-121-67-22-45-13-20-111-9-103-6-97-4
108-33-229-193-40-169-87-205-192-65-254-216-137-223-18-68
135-45-41-33-21-208-193-143-206-250-49-79-112-106-129-74
135-81-245-18-64-211-247-107-92-255-67-92-51-173-210-149
193-49-224-219-155-89-73-141-194-8-16-75-121-107-199-202
207-79-196-130-64-67-44-127-90-181-202-52-203-102-216-21
