98-250-8-9-140-131-2-3-212-31-77-6-139-161-193-2
123-249-48-68-33-104-232-22-138-16-153-101-140-47-249-160
248-144-166-144-1-168-8-160-14-166-110-110-170-243-138-26
92-127-253-96-131-165-43-95-191-91-182-27-197-18-217-243
103-194-199-122-220-143-135-114-60-200-190-126-186-70-243-160
174-14-54-180-132-18-72-139-47-197-37-205-20-162-90-98
187-100-216-133-144-32-42-174-45-245-113-120-248-40-122-242
