206-134-131-169-172-222-105-250-33-244-188-101-168-151-66-210
56-57-255-184-197-201-77-126-143-55-191-2-201-92-167-162
215-179-231-166-93-103-246-29-164-139-61-237-84-103-189-20
155-141-141-176-90-242-190-91-162-180-247-4-10-223-244-232
147-231-112-40-68-89-30-56-126-231-150-222-147-99-240-28
75-14-170-80-181-176-87-202-246-92-50-134-255-123-133-119
159-20-1-184-51-51-32-88-27-117-115-76-145-42-131-69
76-246-97-43-125-176-49-18-117-129-27-76-208-114-94-224
145-26-147-217-236-86-124-111-232-24-8-139-40-192-194-140
115-5-152-78-248-109-199-97-102-39-192-169-251-103-193-246
118-72-113-117-58-35-190-16-157-108-144-125-111-28-189-200
115-222-71-150-132-190-16-14-32-195-23-102-207-0-107-183
137-236-111-200-252-247-25-29-25-171-222-155-101-128-24-195
4-16-69-255-20-208-64-29-101-184-100-158-196-1-68-107
16-164-177-161-184-21-134-122-2-125-150-4-238-14-163-139
