29-210-173-163-47-154-202-192-253-118-66-132-165-83-65-164
233-93-156-182-158-26-90-137-248-124-133-188-129-158-87-41
1-228-23-144-16-159-197-92-190-22-237-3-215-159-5-160
137-167-115-73-209-147-210-224-175-169-169-109-249-213-251-181
41-237-138-83-2-19-225-146-2-237-27-185-60-241-136-248
5-26-45-118-133-189-120-31-12-48-69-161-72-109-179-76
171-38-130-194-89-46-66-17-187-92-6-188-123-123-221-63
38-238-171-194-44-105-177-98-194-5-13-82-198-109-127-117
224-227-28-228-185-34-153-15-89-254-2-148-84-176-101-99
10-180-34-132-149-159-116-5-130-128-94-9-64-234-43-13
61-193-54-198-99-146-197-150-42-214-162-38-55-184-251-102
221-135-239-10-53-25-18-229-130-83-59-138-152-251-102-48
81-49-83-175-163-85-227-135-155-84-99-150-200-115-81-160
163-188-40-52-222-6-60-18-73-102-17-133-92-44-108-160
182-198-138-73-51-48-223-228-102-1-178-111-188-244-118-86
