49-16-97-212-157-216-1-195-163-161-32-48-225-89-14-125
219-168-154-89-31-179-86-87-60-57-149-101-11-10-15-60
26-112-17-184-72-18-123-235-179-155-27-149-244-42-18-208
210-172-41-242-95-127-73-155-184-223-0-195-233-16-0-4
128-17-188-201-35-55-180-215-210-208-108-199-250-126-151-204
42-192-190-138-63-8-37-247-231-38-187-208-54-187-212-182
204-144-127-239-199-52-198-154-4-50-97-254-176-248-202-219
184-137-101-247-145-138-238-120-176-169-72-230-100-29-157-48
173-28-32-117-80-230-15-84-25-112-82-201-104-29-164-32
166-9-23-55-148-5-175-68-175-247-43-19-20-200-68-194
