21-125-13-46-24-136-48-226-213-116-86-225-215-158-136-160
138-229-184-123-242-219-49-163-63-204-173-108-85-245-223-52
5-71-54-139-13-251-44-79-254-20-38-141-2-84-242-136
14-3-45-221-16-193-62-155-54-200-30-199-21-57-192-248
100-12-65-217-3-175-169-83-100-117-139-252-105-113-61-180
81-250-150-206-207-106-234-41-206-164-137-191-117-78-172-148
178-238-76-224-73-41-244-68-40-244-72-218-141-114-79-249
6-117-101-248-157-204-163-175-92-237-82-194-219-204-103-27
175-172-127-215-145-204-154-191-73-120-23-64-26-160-134-55
25-43-6-13-237-25-122-93-66-109-32-2-222-67-38-39
