220-136-97-42-187-30-14-227-242-193-122-240-93-201-30-29
150-183-35-51-212-245-171-101-88-253-188-64-128-142-163-158
246-160-144-53-97-190-208-205-26-185-117-46-147-236-212-30
62-166-50-32-84-108-154-137-144-252-15-226-220-182-210-56
165-75-105-135-166-155-141-222-165-18-53-175-114-229-157-39
25-11-200-85-203-116-109-126-85-250-162-138-18-67-241-217
177-129-202-232-4-126-21-98-100-21-181-44-46-95-205-90
1-18-124-56-74-253-101-155-20-231-43-76-245-253-243-112
155-241-49-93-104-253-151-138-4-133-61-248-92-29-249-58
0-199-1-97-231-0-82-55-131-176-209-147-196-235-117-96
