63-31-178-45-230-96-14-116-14-9-249-63-114-215-2-3
28-48-42-13-62-22-32-232-43-0-3-79-140-34-152-92
2-76-156-6-223-250-109-212-33-229-227-203-231-96-149-106
88-16-148-112-202-131-59-193-187-178-215-23-251-242-46-129
48-136-233-121-14-19-56-23-199-195-111-250-11-101-63-75
96-210-166-188-157-149-103-190-96-178-76-141-171-154-109-141
69-121-240-34-230-104-80-226-216-171-206-181-215-47-67-89
162-88-107-201-29-148-109-193-155-64-7-26-221-21-245-51
