213-121-236-24-7-205-150-186-15-229-17-96-1-127-15-69
141-254-60-168-199-20-169-107-200-84-241-207-40-23-239-254
144-219-22-151-168-173-82-184-146-99-24-148-226-39-217-112
37-22-24-237-42-194-88-242-22-74-193-62-97-176-60-241
139-83-137-52-0-219-236-146-62-4-38-33-44-0-145-81
22-169-62-64-107-151-50-129-225-243-192-66-164-252-51-47
79-188-99-79-151-79-226-214-84-8-247-128-8-136-209-30
49-16-94-157-167-144-30-136-132-222-202-40-219-253-87-42
186-187-122-81-10-92-39-94-100-30-222-109-166-176-139-216
192-234-117-103-122-147-239-254-114-185-38-77-182-126-119-112
57-241-194-67-77-233-162-178-8-128-31-174-48-170-134-240
