240-209-95-214-179-186-41-174-65-130-187-23-136-139-155-187
55-96-191-121-154-210-201-21-25-5-107-167-72-82-164-106
109-87-86-34-80-226-255-155-4-32-65-152-39-235-95-185
233-126-143-136-211-117-26-26-177-237-79-226-165-132-85-243
193-48-104-151-158-197-183-186-31-168-222-59-143-157-225-147
30-199-142-244-22-57-21-196-130-82-105-79-228-209-63-128
171-60-185-54-186-77-247-245-219-71-52-64-24-9-239-215
123-234-132-158-105-56-113-193-165-235-9-146-40-214-19-137
155-42-144-219-20-117-173-51-46-64-45-94-133-26-42-95
141-141-104-251-4-187-81-155-84-17-34-104-245-213-226-255
247-180-81-24-130-111-160-27-173-10-149-76-194-175-175-179
