249-44-159-131-93-29-203-132-138-208-153-22-184-238-71-50
159-60-50-64-158-110-215-22-201-178-238-169-55-119-129-0
167-197-205-44-74-59-90-74-243-63-75-251-202-246-87-162
180-198-93-192-169-5-161-119-11-215-91-254-146-27-113-235
232-185-125-71-198-218-45-174-174-145-121-205-48-124-14-132
141-140-99-251-79-75-88-90-83-239-7-172-182-239-104-207
97-180-36-174-253-34-79-136-31-9-174-5-154-28-187-173
184-250-210-20-75-75-244-103-82-219-53-61-189-185-50-163
235-21-85-38-18-95-203-181-13-43-53-144-219-103-4-40
247-113-31-144-61-81-44-46-26-58-214-125-204-155-61-37
235-191-70-49-48-77-235-150-11-209-213-197-25-23-71-171
147-52-78-227-14-38-137-13-231-214-108-220-247-139-93-235
