173-150-139-150-202-51-244-94-81-63-213-35-133-148-98-73
97-240-104-49-9-103-39-131-154-240-0-151-127-233-58-231
157-89-31-136-54-111-53-96-58-78-143-67-120-220-230-229
201-4-23-151-23-22-105-132-194-235-116-230-82-113-160-124
59-201-181-89-182-234-197-64-75-215-97-77-65-83-210-253
18-17-250-200-95-58-58-76-58-82-163-248-33-119-138-88
76-191-223-173-193-233-10-58-94-45-35-223-23-248-190-219
215-236-164-214-159-41-129-7-191-96-217-92-13-9-149-132
