138-213-128-65-47-94-68-227-74-190-31-8-97-58-192-91
217-88-108-54-52-136-165-96-209-201-148-196-247-46-97-129
3-225-194-51-63-7-22-137-197-53-145-39-112-81-130-73
169-239-127-222-119-36-62-72-237-210-12-228-0-109-102-4
78-40-55-141-47-77-23-245-131-168-28-243-250-158-60-163
141-187-129-4-224-192-76-205-146-89-178-147-198-24-151-21
64-206-162-112-27-185-101-158-98-129-145-92-31-205-255-173
137-129-177-105-65-254-54-211-87-232-102-29-0-253-50-65
203-213-177-231-142-22-133-240-151-23-76-182-228-76-99-109
205-21-214-14-19-13-225-106-245-72-135-246-69-186-55-17
143-232-248-29-254-125-14-149-148-90-75-121-166-175-230-115
196-189-129-215-202-99-65-191-171-200-181-240-130-236-1-17
212-249-47-210-119-61-103-11-151-179-132-62-98-107-177-38
40-51-253-242-150-62-177-65-6-103-49-137-83-51-154-40
