149-46-106-49-186-48-55-74-234-8-82-227-126-68-41-136
36-11-181-87-114-101-175-160-142-104-200-251-17-109-102-26
110-1-225-216-129-3-119-81-168-100-127-237-182-124-40-61
56-240-110-223-201-232-190-76-255-117-255-136-229-22-104-72
200-137-210-169-165-99-80-124-224-240-218-42-126-168-35-63
195-116-31-139-59-251-102-45-80-95-51-180-38-113-24-222
79-177-225-199-197-248-224-63-64-13-59-45-33-245-66-47
131-245-120-116-201-9-155-195-172-181-70-66-160-191-194-225
115-121-237-108-82-108-26-27-233-8-70-98-30-193-118-31
232-51-54-197-245-58-204-93-240-3-208-188-220-161-67-21
197-114-60-62-127-192-51-91-101-178-147-215-56-119-80-219
215-190-114-195-8-211-191-93-130-193-51-193-253-164-129-178
115-5-59-4-175-38-208-232-56-14-242-229-229-149-252-251
99-236-231-26-218-215-13-129-221-11-13-25-237-20-15-163
