0-90-82-57-184-242-31-85-22-78-195-161-125-39-252-60
6-42-93-250-39-78-207-186-9-211-132-235-242-84-54-242
174-137-43-103-123-74-188-146-153-127-51-22-166-47-82-173
90-176-167-129-254-118-60-7-73-192-243-59-20-41-45-194
178-88-41-46-163-229-192-60-100-243-82-11-35-164-184-125
84-95-254-82-213-58-90-30-250-77-90-14-118-135-209-41
224-250-87-131-224-23-191-68-10-17-79-45-181-7-170-10
102-169-92-59-227-182-90-222-3-180-236-122-59-189-163-27
