92-209-168-162-230-67-106-2-208-151-21-67-149-74-230-190
164-229-172-46-195-90-13-95-244-97-46-202-91-174-1-183
127-169-89-102-236-196-104-188-91-125-255-240-199-229-174-107
203-90-154-142-180-167-237-169-8-28-115-99-202-116-27-73
29-116-175-9-56-23-198-147-148-197-132-92-171-50-199-118
141-97-4-65-8-241-234-17-13-93-116-215-209-143-33-238
4-208-248-60-232-190-208-124-131-84-216-46-134-160-164-19
1-168-85-10-154-63-27-167-157-143-127-110-31-160-93-35
112-85-95-88-19-47-213-150-131-173-197-10-77-105-29-79
18-114-89-172-178-116-83-79-3-210-189-34-114-26-69-227
111-165-59-130-212-16-25-88-190-222-98-11-71-127-90-89
242-179-5-164-39-89-243-43-43-176-77-158-203-147-129-58
56-188-189-12-205-214-100-139-180-198-150-251-70-241-85-56
164-90-220-204-179-207-247-223-127-68-125-74-215-254-133-15
186-66-28-135-24-128-18-204-71-169-199-141-154-28-197-62
