127-52-40-213-61-207-129-160-218-205-39-16-28-248-102-214
168-167-171-167-114-185-91-208-158-131-54-204-200-120-123-71
172-163-29-234-114-158-138-76-107-177-92-136-169-194-94-82
105-9-249-219-194-84-172-96-215-226-44-159-90-167-231-7
74-4-241-189-162-123-9-14-44-102-150-214-40-244-40-146
253-33-109-191-117-25-32-76-252-76-235-86-244-210-93-62
214-78-251-121-201-5-135-246-107-29-204-147-17-244-37-14
21-147-205-138-172-237-214-168-58-193-255-46-148-92-108-106
171-104-227-116-109-106-106-216-135-54-107-152-42-145-166-63
36-116-201-208-97-159-121-155-97-120-201-245-212-54-95-127
158-67-244-11-173-94-227-53-149-78-205-191-223-116-255-3
232-200-212-73-104-77-229-201-197-174-190-153-228-29-25-130
96-13-141-14-107-112-67-0-191-16-192-158-132-191-162-108
