147-187-6-62-136-194-214-34-248-66-158-58-254-84-57-40
215-245-23-226-92-66-203-179-47-209-29-72-177-34-227-88
34-199-125-166-61-248-238-166-43-213-171-5-177-5-50-196
158-148-13-177-206-157-87-243-238-127-79-52-1-207-20-232
101-16-183-248-188-206-152-102-205-114-71-82-97-224-177-134
181-58-202-120-96-232-237-202-122-87-219-80-182-130-152-196
34-107-237-189-133-206-149-250-81-56-77-150-10-158-63-126
115-183-222-0-0-102-220-158-146-229-123-101-111-118-110-32
206-64-74-182-190-171-22-203-44-30-85-155-174-241-210-80
40-14-232-219-64-12-239-139-163-2-127-63-162-4-193-19
220-56-236-145-75-78-79-247-25-53-66-228-110-197-91-189
140-216-159-183-112-39-169-118-111-190-98-166-171-214-93-65
246-102-225-176-16-133-18-152-231-123-59-225-168-235-251-136
