147-164-234-44-112-196-113-157-255-237-6-26-48-44-84-26
33-24-54-99-12-226-30-247-37-219-229-128-27-55-16-174
220-251-219-76-191-76-233-190-57-239-216-105-27-44-132-61
68-186-160-80-156-190-71-194-153-44-66-180-100-82-98-64
77-61-140-12-138-117-202-195-101-162-45-128-206-177-189-18
107-93-99-8-27-170-202-180-215-12-104-59-94-203-123-172
8-7-184-146-124-131-86-225-37-131-98-244-52-31-6-159
