40-226-52-219-244-142-13-198-154-121-190-156-3-175-151-111
88-49-148-3-28-112-196-220-239-59-89-238-254-132-242-42
179-33-49-244-177-71-224-195-86-154-132-93-44-87-195-100
180-114-27-94-43-225-81-68-246-136-47-8-0-137-43-246
119-229-80-119-165-20-29-8-226-33-141-202-141-248-171-115
214-15-123-76-169-76-247-175-152-48-243-7-173-114-2-209
172-126-48-200-211-119-175-54-77-154-24-63-153-207-169-66
238-33-188-22-116-18-154-131-66-94-194-234-175-125-54-126
47-233-255-189-64-234-152-13-19-0-32-9-242-194-193-113
51-92-49-245-239-242-219-114-200-169-68-82-43-55-214-123
252-118-135-253-185-89-93-82-10-196-128-219-133-253-68-245
129-90-94-240-77-215-17-157-21-109-244-165-177-166-36-63
