9-10-187-201-244-233-220-216-62-154-202-86-147-206-60-3
219-30-182-243-149-40-248-34-0-191-187-225-225-232-156-58
194-63-36-241-179-152-158-98-252-253-225-216-58-29-202-188
156-85-103-16-200-189-4-33-247-168-10-143-39-167-20-142
107-41-80-175-245-162-253-98-76-181-98-175-71-105-77-105
115-129-78-125-33-26-113-207-169-15-86-24-71-115-55-129
165-163-127-47-120-144-126-94-10-186-165-27-148-38-213-202
